﻿{
  "dependencies": {
    "CommonServiceLocator": "1.3.0",
    "Microsoft.NETCore.UniversalWindowsPlatform": "5.4.0",
    "Prism.Core": "6.3.0",
    "Prism.Forms": "6.3.0",
    "Prism.Unity.Forms": "6.3.0",
    "Unity": "4.0.1",
    "Xamarin.Forms": "2.3.4.267",
    "Xamarin.Forms.Maps": "2.3.4.267"
  },
  "frameworks": {
    "uap10.0": {}
  },
  "runtimes": {
    "win10-arm": {},
    "win10-arm-aot": {},
    "win10-x86": {},
    "win10-x86-aot": {},
    "win10-x64": {},
    "win10-x64-aot": {}
  }
}